^C:\USERS\USER\DOCUMENTS\VISUAL STUDIO 2013\PROJECTS\ANTI CHEAT CLIENT\ANTI-CHEAT\ANTI-CHEAT\SERVER DLL\DLL1\DATABASE.CPP|C:\USERS\USER\DOCUMENTS\VISUAL STUDIO 2013\PROJECTS\ANTI CHEAT CLIENT\ANTI-CHEAT\ANTI-CHEAT\SERVER DLL\DLL1\DLLMAIN.CPP|C:\USERS\USER\DOCUMENTS\VISUAL STUDIO 2013\PROJECTS\ANTI CHEAT CLIENT\ANTI-CHEAT\ANTI-CHEAT\SERVER DLL\DLL1\HELPER.CPP|C:\USERS\USER\DOCUMENTS\VISUAL STUDIO 2013\PROJECTS\ANTI CHEAT CLIENT\ANTI-CHEAT\ANTI-CHEAT\SERVER DLL\DLL1\RECEIVEDMESSAGE.CPP|C:\USERS\USER\DOCUMENTS\VISUAL STUDIO 2013\PROJECTS\ANTI CHEAT CLIENT\ANTI-CHEAT\ANTI-CHEAT\SERVER DLL\DLL1\SERVER.CPP|C:\USERS\USER\DOCUMENTS\VISUAL STUDIO 2013\PROJECTS\ANTI CHEAT CLIENT\ANTI-CHEAT\ANTI-CHEAT\SERVER DLL\DLL1\USER.CPP|C:\USERS\USER\DOCUMENTS\VISUAL STUDIO 2013\PROJECTS\ANTI CHEAT CLIENT\ANTI-CHEAT\ANTI-CHEAT\SERVER DLL\DLL1\VALIDATOR.CPP|C:\USERS\USER\DOCUMENTS\VISUAL STUDIO 2013\PROJECTS\ANTI CHEAT CLIENT\ANTI-CHEAT\ANTI-CHEAT\SERVER DLL\DLL1\WSAINITIALIZER.CPP
C:\USERS\USER\DOCUMENTS\VISUAL STUDIO 2013\PROJECTS\ANTI CHEAT CLIENT\ANTI-CHEAT\ANTI-CHEAT\SERVER DLL\DLL1\X64\DEBUG\VC120.PDB
C:\USERS\USER\DOCUMENTS\VISUAL STUDIO 2013\PROJECTS\ANTI CHEAT CLIENT\ANTI-CHEAT\ANTI-CHEAT\SERVER DLL\DLL1\X64\DEBUG\VC120.IDB
C:\USERS\USER\DOCUMENTS\VISUAL STUDIO 2013\PROJECTS\ANTI CHEAT CLIENT\ANTI-CHEAT\ANTI-CHEAT\SERVER DLL\DLL1\X64\DEBUG\DATABASE.OBJ
C:\USERS\USER\DOCUMENTS\VISUAL STUDIO 2013\PROJECTS\ANTI CHEAT CLIENT\ANTI-CHEAT\ANTI-CHEAT\SERVER DLL\DLL1\X64\DEBUG\DLLMAIN.OBJ
C:\USERS\USER\DOCUMENTS\VISUAL STUDIO 2013\PROJECTS\ANTI CHEAT CLIENT\ANTI-CHEAT\ANTI-CHEAT\SERVER DLL\DLL1\X64\DEBUG\HELPER.OBJ
C:\USERS\USER\DOCUMENTS\VISUAL STUDIO 2013\PROJECTS\ANTI CHEAT CLIENT\ANTI-CHEAT\ANTI-CHEAT\SERVER DLL\DLL1\X64\DEBUG\RECEIVEDMESSAGE.OBJ
C:\USERS\USER\DOCUMENTS\VISUAL STUDIO 2013\PROJECTS\ANTI CHEAT CLIENT\ANTI-CHEAT\ANTI-CHEAT\SERVER DLL\DLL1\X64\DEBUG\SERVER.OBJ
C:\USERS\USER\DOCUMENTS\VISUAL STUDIO 2013\PROJECTS\ANTI CHEAT CLIENT\ANTI-CHEAT\ANTI-CHEAT\SERVER DLL\DLL1\X64\DEBUG\USER.OBJ
C:\USERS\USER\DOCUMENTS\VISUAL STUDIO 2013\PROJECTS\ANTI CHEAT CLIENT\ANTI-CHEAT\ANTI-CHEAT\SERVER DLL\DLL1\X64\DEBUG\VALIDATOR.OBJ
C:\USERS\USER\DOCUMENTS\VISUAL STUDIO 2013\PROJECTS\ANTI CHEAT CLIENT\ANTI-CHEAT\ANTI-CHEAT\SERVER DLL\DLL1\X64\DEBUG\WSAINITIALIZER.OBJ
^C:\USERS\USER\DOCUMENTS\VISUAL STUDIO 2013\PROJECTS\ANTI CHEAT CLIENT\ANTI-CHEAT\ANTI-CHEAT\SERVER DLL\DLL1\DATABASE.CPP
C:\USERS\USER\DOCUMENTS\VISUAL STUDIO 2013\PROJECTS\ANTI CHEAT CLIENT\ANTI-CHEAT\ANTI-CHEAT\SERVER DLL\DLL1\X64\DEBUG\VC120.PDB
^C:\USERS\USER\DOCUMENTS\VISUAL STUDIO 2013\PROJECTS\ANTI CHEAT CLIENT\ANTI-CHEAT\ANTI-CHEAT\SERVER DLL\DLL1\DLLMAIN.CPP
C:\USERS\USER\DOCUMENTS\VISUAL STUDIO 2013\PROJECTS\ANTI CHEAT CLIENT\ANTI-CHEAT\ANTI-CHEAT\SERVER DLL\DLL1\X64\DEBUG\VC120.PDB
C:\USERS\USER\DOCUMENTS\VISUAL STUDIO 2013\PROJECTS\ANTI CHEAT CLIENT\ANTI-CHEAT\ANTI-CHEAT\SERVER DLL\DLL1\X64\DEBUG\VC120.IDB
C:\USERS\USER\DOCUMENTS\VISUAL STUDIO 2013\PROJECTS\ANTI CHEAT CLIENT\ANTI-CHEAT\ANTI-CHEAT\SERVER DLL\DLL1\X64\DEBUG\DLLMAIN.OBJ
^C:\USERS\USER\DOCUMENTS\VISUAL STUDIO 2013\PROJECTS\ANTI CHEAT CLIENT\ANTI-CHEAT\ANTI-CHEAT\SERVER DLL\DLL1\HELPER.CPP
C:\USERS\USER\DOCUMENTS\VISUAL STUDIO 2013\PROJECTS\ANTI CHEAT CLIENT\ANTI-CHEAT\ANTI-CHEAT\SERVER DLL\DLL1\X64\DEBUG\VC120.PDB
^C:\USERS\USER\DOCUMENTS\VISUAL STUDIO 2013\PROJECTS\ANTI CHEAT CLIENT\ANTI-CHEAT\ANTI-CHEAT\SERVER DLL\DLL1\RECEIVEDMESSAGE.CPP
C:\USERS\USER\DOCUMENTS\VISUAL STUDIO 2013\PROJECTS\ANTI CHEAT CLIENT\ANTI-CHEAT\ANTI-CHEAT\SERVER DLL\DLL1\X64\DEBUG\VC120.PDB
^C:\USERS\USER\DOCUMENTS\VISUAL STUDIO 2013\PROJECTS\ANTI CHEAT CLIENT\ANTI-CHEAT\ANTI-CHEAT\SERVER DLL\DLL1\SERVER.CPP
C:\USERS\USER\DOCUMENTS\VISUAL STUDIO 2013\PROJECTS\ANTI CHEAT CLIENT\ANTI-CHEAT\ANTI-CHEAT\SERVER DLL\DLL1\X64\DEBUG\VC120.PDB
^C:\USERS\USER\DOCUMENTS\VISUAL STUDIO 2013\PROJECTS\ANTI CHEAT CLIENT\ANTI-CHEAT\ANTI-CHEAT\SERVER DLL\DLL1\USER.CPP
C:\USERS\USER\DOCUMENTS\VISUAL STUDIO 2013\PROJECTS\ANTI CHEAT CLIENT\ANTI-CHEAT\ANTI-CHEAT\SERVER DLL\DLL1\X64\DEBUG\VC120.PDB
^C:\USERS\USER\DOCUMENTS\VISUAL STUDIO 2013\PROJECTS\ANTI CHEAT CLIENT\ANTI-CHEAT\ANTI-CHEAT\SERVER DLL\DLL1\VALIDATOR.CPP
C:\USERS\USER\DOCUMENTS\VISUAL STUDIO 2013\PROJECTS\ANTI CHEAT CLIENT\ANTI-CHEAT\ANTI-CHEAT\SERVER DLL\DLL1\X64\DEBUG\VC120.PDB
^C:\USERS\USER\DOCUMENTS\VISUAL STUDIO 2013\PROJECTS\ANTI CHEAT CLIENT\ANTI-CHEAT\ANTI-CHEAT\SERVER DLL\DLL1\WSAINITIALIZER.CPP
C:\USERS\USER\DOCUMENTS\VISUAL STUDIO 2013\PROJECTS\ANTI CHEAT CLIENT\ANTI-CHEAT\ANTI-CHEAT\SERVER DLL\DLL1\X64\DEBUG\VC120.PDB
^C:\USERS\USER\DOCUMENTS\VISUAL STUDIO 2013\PROJECTS\ANTI CHEAT CLIENT\ANTI-CHEAT\ANTI-CHEAT\SERVER DLL\DLL1\SQLITE3.C
C:\USERS\USER\DOCUMENTS\VISUAL STUDIO 2013\PROJECTS\ANTI CHEAT CLIENT\ANTI-CHEAT\ANTI-CHEAT\SERVER DLL\DLL1\X64\DEBUG\VC120.PDB
C:\USERS\USER\DOCUMENTS\VISUAL STUDIO 2013\PROJECTS\ANTI CHEAT CLIENT\ANTI-CHEAT\ANTI-CHEAT\SERVER DLL\DLL1\X64\DEBUG\VC120.IDB
C:\USERS\USER\DOCUMENTS\VISUAL STUDIO 2013\PROJECTS\ANTI CHEAT CLIENT\ANTI-CHEAT\ANTI-CHEAT\SERVER DLL\DLL1\X64\DEBUG\SQLITE3.OBJ
